Timestamp,Beacon1,Beacon2,Beacon3,Beacon4,Zone
1597824913799,-74,-79,-68,-83,1
1597824924720,-72,-81,-69,-79,1
1597824925690,-68,-82,-87,-76,1
1597824926757,-65,-83,-77,-97,1
1597824928482,-73,-81,-73,-95,1
1597824939627,-70,-80,-73,-77,1
1597824940923,-72,-82,-71,-76,1
1597824943203,-66,-76,-76,-84,1
1597824956101,-57,-80,-76,-84,1
1597824957128,-56,-85,-76,-87,1
1597824969025,-79,-82,-66,-76,1
1597824970091,-75,-93,-67,-76,1
1597824971333,-77,-81,-65,-76,1
1597824972337,-67,-80,-67,-75,1
1597824988305,-67,-87,-77,-79,1
1597825000502,-68,-90,-81,-79,1
1597825001479,-67,-90,-78,-79,1
1597825003519,-51,-88,-72,-79,1
1597825015231,-56,-93,-72,-78,1
1597825016222,-56,-91,-70,-78,1
1597825017288,-56,-85,-70,-78,1
1597825018690,-60,-91,-67,-85,1
1597825029393,-65,-88,-70,-82,1
1597825030363,-63,-90,-70,-80,1
1597825031899,-57,-88,-77,-81,1
1597825045596,-65,-78,-74,-78,1
1597825047270,-71,-79,-78,-78,1
1597825048291,-72,-81,-77,-75,1
1597825059454,-69,-80,-77,-78,1
1597825061474,-69,-79,-78,-78,1
1597825063348,-66,-77,-73,-73,1
1597825075438,-66,-77,-73,-89,1
1597825076728,-66,-77,-70,-88,1
1597825077754,-66,-73,-74,-79,1
1597825088911,-65,-80,-65,-77,1
1597825090243,-65,-80,-68,-77,1
1597825091761,-66,-80,-69,-77,1
1597825093272,-66,-82,-79,-77,1
1597825104822,-60,-76,-77,-88,1
1597825106134,-59,-76,-80,-86,1
1597825107456,-59,-76,-69,-85,1
1597825119637,-71,-83,-70,-69,1
1597825121131,-78,-82,-68,-77,1
1597825123736,-69,-89,-95,-81,1
1597825135534,-68,-79,-72,-74,1
1597825137608,-70,-75,-74,-75,1
1597825150552,-70,-75,-71,-80,1
1597825151569,-69,-74,-70,-79,1
1597825153491,-62,-74,-77,-84,1
1597825164996,-62,-79,-82,-81,1
1597825166018,-62,-78,-78,-83,1
1597825167036,-64,-80,-84,-91,1
1597825178976,-68,-79,-84,-87,1
1597825181029,-68,-80,-81,-91,1
1597825182515,-68,-80,-84,-88,1
1597825183520,-61,-79,-72,-91,1
1597825194650,-61,-82,-76,-86,1
1597825196703,-66,-85,-75,-87,1
1597825198735,-61,-84,-80,-79,1
1597825209647,-61,-85,-79,-79,1
1597825210623,-63,-84,-79,-79,1
1597825212282,-63,-84,-79,-79,1
1597825213673,-50,-81,-75,-79,1
1597825225105,-51,-81,-74,-84,1
1597825226907,-50,-82,-73,-85,1
1597825227896,-51,-79,-74,-77,1
1597825239054,-70,-90,-82,-76,1
1597825240074,-71,-94,-82,-77,1
1597825242119,-70,-93,-79,-77,1
1597825243095,-70,-77,-78,-91,1
1597825255252,-69,-76,-77,-85,1
1597825257156,-64,-78,-81,-82,1
1597825258170,-62,-82,-76,-82,1
1597825271326,-66,-78,-72,-83,1
1597825284635,-58,-85,-70,-81,1
1597825287260,-65,-83,-68,-78,1
1597825288264,-65,-89,-66,-82,1
1597825300426,-63,-79,-66,-80,1
1597825301436,-66,-80,-66,-90,1
1597825302455,-72,-80,-75,-85,1
1597825315607,-66,-85,-62,-72,1
1597825316574,-65,-76,-66,-79,1
1597825329798,-63,-70,-78,-90,1
1597825330795,-61,-76,-76,-79,1
1597825332887,-65,-79,-81,-82,1
1597825333834,-77,-81,-79,-88,1
1597825344715,-74,-78,-75,-91,1
1597825345733,-73,-78,-73,-92,1
1597825346777,-76,-83,-76,-77,1
1597825348562,-66,-79,-73,-81,1
1597825359820,-63,-74,-72,-84,1
1597825362573,-63,-75,-85,-90,1
1597825374808,-67,-75,-87,-81,1
1597825376166,-66,-75,-85,-81,1
1597825378185,-62,-89,-76,-88,1
1597825390571,-62,-89,-76,-89,1
1597825391589,-62,-88,-78,-89,1
1597825393021,-66,-85,-79,-89,1
1597825404764,-66,-85,-69,-80,1
1597825406787,-66,-85,-69,-79,1
1597825408489,-65,-83,-69,-79,1
1597825419646,-66,-84,-68,-79,1
1597825420665,-66,-88,-68,-79,1
1597825421664,-63,-82,-71,-83,1
1597825422644,-61,-81,-72,-79,1
1597825423688,-77,-78,-73,-81,1
1597825434857,-81,-76,-76,-81,1
1597825435851,-69,-77,-83,-79,1
1597825437642,-71,-75,-77,-87,1
1597825450091,-71,-78,-82,-79,1
1597825451764,-72,-78,-82,-82,1
1597825452768,-72,-77,-78,-82,1
1597825464336,-69,-75,-78,-75,1
1597825466326,-69,-78,-84,-75,1
1597825468373,-69,-78,-79,-87,1
1597825479791,-67,-79,-75,-85,1
1597825481109,-65,-80,-77,-89,1
1597825482129,-68,-81,-81,-90,1
1597825483564,-67,-87,-82,-85,1
1597825494726,-77,-81,-77,-89,1
1597825496729,-67,-77,-75,-81,1
1597825498719,-75,-74,-73,-77,1
1597825510554,-73,-77,-67,-70,1
1597825512604,-75,-78,-63,-72,1
1597825513599,-84,-72,-74,-85,1
1597825526762,-73,-76,-72,-77,1
1597825528480,-68,-80,-78,-70,1
1597825539616,-64,-91,-74,-69,1
1597825540640,-69,-82,-75,-72,1
1597825542426,-70,-79,-74,-73,1
1597825554649,-68,-79,-75,-72,1
1597825555761,-67,-81,-75,-76,1
1597825557737,-67,-80,-76,-71,1
1597825558652,-66,-82,-71,-74,1
1597825570848,-66,-82,-73,-71,1
1597825572123,-67,-80,-74,-79,1
1597825573123,-78,-82,-90,-82,1
1597825585287,-76,-75,-84,-88,1
1597825586302,-79,-73,-84,-90,1
1597825587313,-79,-73,-85,-83,1
1597825599231,-63,-96,-70,-88,1
1597825600345,-63,-88,-71,-88,1
1597825602301,-63,-88,-70,-88,1
1597825603336,-63,-84,-69,-85,1
1597825614994,-64,-85,-69,-85,1
1597825616049,-65,-85,-69,-85,1
1597825617144,-66,-85,-69,-85,1
1597825618054,-66,-90,-70,-85,1
1597825629236,-63,-90,-72,-87,1
1597825630936,-63,-88,-70,-88,1
1597825632235,-63,-88,-70,-83,1
1597825633317,-65,-81,-70,-85,1
1597825644376,-66,-81,-65,-77,1
1597825645849,-62,-81,-69,-84,1
1597825647448,-63,-87,-71,-75,1
1597825659108,-77,-81,-75,-80,1
1597825660331,-79,-80,-77,-78,1
1597825663083,-78,-79,-76,-78,1
1597825674224,-63,-76,-75,-76,1
1597825675225,-63,-76,-74,-78,1
1597825676243,-63,-77,-75,-77,1
1597825678232,-70,-83,-71,-77,1
1597825690361,-66,-75,-74,-79,1
1597825692466,-71,-76,-72,-72,1
1597825704639,-70,-81,-68,-76,1
1597825705677,-71,-81,-68,-76,1
1597825706917,-71,-81,-68,-76,1
1597825707969,-73,-81,-68,-76,1
1597825721130,-73,-77,-70,-82,1
1597825722147,-73,-77,-70,-82,1
1597825723162,-72,-77,-80,-82,1
1597825734307,-71,-88,-81,-82,1
1597825735690,-71,-82,-81,-79,1
1597825736686,-71,-87,-81,-82,1
1597825737693,-70,-88,-80,-82,1
1597825738786,-71,-87,-81,-83,1
1597825751172,-71,-87,-81,-82,1
1597825752573,-72,-85,-81,-83,1
1597825765044,-62,-84,-80,-91,1
1597825766062,-62,-84,-74,-91,1
1597825767080,-64,-78,-75,-92,1
1597825779308,-63,-79,-76,-77,1
1597825780281,-60,-84,-77,-79,1
1597825781957,-64,-83,-76,-79,1
1597825782960,-77,-83,-76,-79,1
1597825794164,-77,-76,-95,-75,1
1597825795123,-76,-77,-87,-75,1
1597825796898,-81,-76,-70,-75,1
1597825809035,-69,-84,-72,-87,1
1597825810107,-65,-88,-72,-84,1
1597825811785,-66,-91,-74,-83,1
1597825813422,-67,-91,-78,-82,1
1597825825285,-66,-79,-77,-84,1
1597825826339,-66,-80,-73,-87,1
1597825840466,-67,-86,-70,-81,1
1597825841491,-67,-85,-74,-78,1
1597825842770,-72,-85,-74,-82,1
1597825853910,-72,-79,-91,-84,1
1597825855380,-73,-84,-88,-85,1
1597825856714,-74,-82,-83,-84,1
1597825858745,-61,-85,-78,-73,1
1597825869879,-65,-86,-74,-70,1
1597825871614,-63,-87,-77,-74,1
1597825872916,-64,-85,-78,-77,1
1597825884343,-66,-90,-78,-82,1
1597825885344,-65,-83,-77,-79,1
1597825886365,-63,-87,-82,-83,1
1597825888147,-62,-80,-75,-83,1
1597825899540,-62,-84,-75,-82,1
1597825900576,-58,-84,-75,-82,1
1597825902334,-62,-84,-75,-83,1
1597825903660,-63,-85,-72,-85,1
1597825914706,-63,-85,-73,-86,1
1597825915798,-64,-85,-73,-82,1
1597825917549,-63,-87,-78,-84,1
1597825918566,-63,-73,-67,-89,1
1597825930759,-64,-81,-65,-78,1
1597825931774,-61,-82,-80,-81,1
1597825944129,-62,-78,-75,-83,1
1597825945151,-62,-76,-73,-89,1
1597825946943,-61,-75,-76,-76,1
1597825947990,-67,-85,-76,-73,1
1597825959921,-67,-90,-75,-75,1
1597825963140,-68,-76,-78,-96,1
1597825974346,-62,-76,-72,-88,1
1597825976364,-62,-74,-72,-92,1
1597825977392,-65,-82,-74,-80,1
1597825978393,-75,-85,-80,-85,1
1597825991559,-70,-85,-77,-82,1
1597825992563,-69,-82,-76,-81,1
1597825993567,-72,-96,-72,-76,1
1597826005622,-75,-78,-72,-83,1
1597826006648,-83,-74,-67,-79,1
1597826007759,-62,-72,-67,-85,1
1597826008741,-64,-79,-76,-82,1
1597826020037,-64,-78,-79,-80,1
1597826021087,-65,-79,-75,-78,1
1597826022091,-66,-87,-74,-76,1
1597826034966,-58,-83,-72,-74,1
1597826037213,-62,-83,-78,-72,1
1597826049375,-62,-82,-84,-72,1
1597826051362,-61,-76,-78,-79,1
1597826052434,-55,-78,-81,-87,1
1597826064382,-61,-79,-60,-79,1
1597826065598,-62,-80,-66,-77,1
1597826067438,-67,-82,-66,-82,1
1597826068595,-67,-87,-84,-80,1
1597826079780,-67,-88,-84,-90,1
1597826082799,-67,-87,-91,-84,1
1597826093979,-57,-84,-85,-85,1
1597826096118,-57,-84,-91,-85,1
1597826098040,-57,-91,-73,-88,1
1597826110056,-56,-91,-73,-88,1
1597826111065,-56,-92,-73,-88,1
1597826112274,-57,-86,-72,-91,1
1597826113348,-70,-79,-76,-82,1
1597826125446,-75,-79,-76,-81,1
1597826126436,-77,-79,-77,-84,1
1597826127465,-77,-79,-66,-84,1
1597826128486,-73,-80,-74,-84,1
1597826140663,-70,-79,-73,-82,1
1597826141663,-70,-80,-74,-81,1
1597826142686,-68,-81,-73,-85,1
1597826154675,-53,-81,-85,-85,1
1597826155981,-53,-81,-84,-85,1
1597826156912,-53,-82,-88,-84,1
1597826157932,-64,-81,-73,-72,1
1597826169067,-69,-75,-77,-79,1
1597826172081,-66,-79,-75,-88,1
1597826173099,-64,-76,-75,-83,1
1597826185303,-65,-76,-75,-83,1
1597826186296,-65,-77,-75,-82,1
1597826187316,-65,-76,-75,-83,1
1597826199214,-65,-76,-75,-82,1
1597826200508,-65,-76,-75,-83,1
1597826201524,-65,-76,-75,-79,1
1597826203543,-65,-75,-72,-78,1
1597826214720,-65,-75,-74,-87,1
1597826215740,-65,-79,-76,-79,1
1597826216713,-66,-72,-79,-82,1
1597826218531,-64,-99,-91,-91,1
1597826230689,-63,-98,-91,-81,1
1597826231711,-63,-100,-89,-82,1
1597826233740,-63,-88,-74,-85,1
1597826244152,-63,-88,-75,-86,1
1597826246159,-63,-89,-71,-86,1
1597826247174,-63,-98,-75,-94,1
1597826259340,-63,-95,-76,-94,1
1597826260335,-66,-82,-72,-78,1
1597826263309,-58,-84,-72,-82,1
1597826274416,-58,-84,-72,-93,1
1597826277605,-58,-85,-71,-86,1
1597826289767,-61,-78,-90,-79,1
1597826291790,-63,-82,-75,-80,1
1597826293814,-62,-85,-83,-76,1
1597826306719,-69,-85,-80,-78,1
1597826308741,-63,-84,-78,-76,1
1597826319135,-60,-84,-78,-76,1
1597826320914,-58,-85,-78,-72,1
1597826334364,-70,-80,-78,-75,1
1597826335370,-65,-80,-78,-75,1
1597826336392,-63,-82,-71,-81,1
1597826337417,-73,-86,-74,-83,1
1597826338440,-67,-79,-70,-87,1
1597826349594,-66,-80,-71,-85,1
1597826351702,-67,-79,-78,-78,1
1597826353655,-68,-79,-69,-79,1
1597826364794,-67,-79,-73,-79,1
1597826366024,-67,-79,-75,-89,1
1597826366881,-70,-92,-75,-74,1
1597826367891,-58,-82,-79,-77,1
1597826379141,-58,-85,-79,-77,1
1597826380058,-62,-91,-79,-77,1
1597826381074,-63,-88,-79,-80,1
1597826382100,-72,-81,-70,-79,1
1597826394979,-70,-83,-97,-80,1
1597826395989,-72,-84,-85,-80,1
1597826397271,-70,-82,-85,-80,1
1597826398299,-60,-90,-88,-71,1
1597826410131,-60,-91,-88,-75,1
1597826411196,-60,-90,-88,-79,1
1597826412490,-70,-82,-88,-79,1
1597826425409,-91,-84,-78,-80,1
1597826426410,-79,-84,-78,-79,1
1597826428419,-62,-79,-79,-84,1
1597826439604,-62,-79,-90,-81,1
1597826440622,-62,-79,-90,-81,1
1597826441627,-62,-78,-78,-81,1
1597826455177,-53,-88,-78,-78,1
1597826456171,-47,-88,-77,-78,1
1597826469426,-56,-88,-77,-79,1
1597826471016,-58,-78,-76,-79,1
1597826473151,-62,-81,-84,-93,1
1597826485603,-61,-82,-96,-85,1
1597826488243,-65,-80,-98,-85,1
1597826500435,-63,-76,-82,-82,1
1597826501487,-67,-74,-79,-85,1
1597826503491,-54,-77,-80,-76,1
1597826516621,-60,-73,-85,-78,1
1597826518658,-65,-77,-81,-80,1
1597826530952,-68,-79,-77,-78,1
1597826544985,-67,-78,-77,-82,1
1597826546565,-67,-77,-75,-83,1
1597826547506,-67,-77,-75,-83,1
1597826548565,-59,-88,-87,-82,1
1597826559694,-54,-90,-76,-85,1
1597826560697,-58,-84,-73,-90,1
1597826562267,-53,-83,-72,-90,1
1597826574444,-57,-85,-85,-75,1
1597826575412,-57,-91,-74,-78,1
1597826576452,-57,-81,-71,-79,1
1597826578466,-63,-94,-82,-85,1
1597826591100,-59,-81,-72,-85,1
1597826592066,-66,-79,-86,-97,1
1597826593113,-63,-81,-78,-85,1
1597826605068,-64,-79,-59,-83,1
1597826606042,-63,-73,-72,-88,1
1597826607384,-62,-76,-74,-81,1
1597826619453,-58,-87,-76,-82,1
1597826621262,-58,-86,-76,-81,1
1597826622487,-59,-86,-76,-82,1
1597826623555,-58,-85,-78,-78,1
1597826634629,-57,-84,-73,-82,1
1597826635695,-57,-82,-76,-78,1
1597826637263,-57,-85,-81,-82,1
1597826638487,-65,-84,-72,-79,1
1597826649972,-64,-88,-73,-84,1
1597826650977,-65,-89,-75,-81,1
1597826652682,-57,-92,-77,-81,1
1597826664642,-63,-88,-87,-77,1
1597826666665,-69,-79,-77,-77,1
1597826667676,-71,-72,-67,-81,1
1597826679323,-70,-78,-72,-79,1
1597826680337,-71,-76,-71,-80,1
1597826682109,-79,-85,-71,-77,1
1597826683112,-65,-85,-69,-76,1
1597826695305,-66,-87,-74,-75,1
1597826697343,-64,-87,-74,-75,1
1597826698320,-67,-83,-74,-76,1
1597826710270,-62,-92,-82,-76,1
1597826711290,-61,-77,-71,-74,1
1597826712309,-63,-77,-79,-78,1
1597827248065,-94,-54,-78,-68,2
1597827260131,-94,-54,-78,-69,2
1597827261135,-94,-54,-78,-69,2
1597827262158,-94,-54,-78,-69,2
1597827273275,-99,-54,-79,-69,2
1597827276318,-97,-47,-78,-69,2
1597827277327,-98,-51,-80,-82,2
1597827289067,-85,-47,-79,-81,2
1597827290075,-86,-51,-79,-81,2
1597827291114,-83,-52,-78,-82,2
1597827292105,-85,-52,-82,-95,2
1597827305934,-80,-47,-84,-94,2
1597827319512,-81,-45,-83,-92,2
1597827321130,-81,-45,-83,-91,2
1597827322346,-80,-45,-83,-73,2
1597827333487,-80,-45,-71,-73,2
1597827334488,-79,-45,-67,-73,2
1597827336136,-80,-45,-71,-69,2
1597827337602,-80,-45,-71,-73,2
1597827349665,-80,-45,-71,-73,2
1597827350725,-80,-45,-70,-73,2
1597827352708,-80,-45,-71,-73,2
1597827364925,-80,-45,-70,-73,2
1597827365972,-80,-45,-71,-73,2
1597827366992,-77,-45,-71,-73,2
1597827367969,-79,-58,-75,-71,2
1597827379713,-83,-61,-84,-72,2
1597827381765,-84,-61,-83,-72,2
1597827382768,-91,-76,-73,-72,2
1597827394033,-81,-73,-71,-71,2
1597827395313,-76,-66,-74,-78,2
1597827397355,-74,-65,-74,-60,2
1597827408532,-78,-65,-66,-63,2
1597827411573,-75,-73,-71,-72,2
1597827412568,-85,-44,-67,-70,2
1597827424501,-88,-44,-69,-73,2
1597827425521,-88,-43,-72,-73,2
1597827427505,-84,-44,-72,-72,2
1597827439715,-84,-42,-77,-76,2
1597827440687,-88,-57,-85,-78,2
1597827441693,-88,-56,-79,-75,2
1597827442754,-88,-78,-76,-76,2
1597827453918,-90,-77,-78,-77,2
1597827455846,-97,-76,-81,-81,2
1597827457453,-81,-52,-84,-83,2
1597827469334,-87,-68,-73,-73,2
1597827470688,-84,-66,-76,-73,2
1597827471652,-86,-65,-76,-74,2
1597827472666,-81,-56,-72,-77,2
1597827484511,-81,-63,-72,-82,2
1597827485530,-82,-61,-73,-75,2
1597827486546,-84,-63,-74,-74,2
1597827487570,-85,-66,-75,-75,2
1597827498693,-79,-70,-90,-76,2
1597827499743,-73,-72,-88,-73,2
1597827501538,-68,-70,-77,-68,2
1597827502517,-81,-68,-90,-72,2
1597827514676,-85,-69,-86,-73,2
1597827515981,-84,-70,-85,-67,2
1597827516981,-81,-73,-79,-64,2
1597827528958,-80,-67,-95,-65,2
1597827530115,-86,-67,-79,-73,2
1597827531128,-91,-58,-77,-63,2
1597827532166,-80,-65,-76,-72,2
1597827543334,-82,-63,-71,-70,2
1597827545334,-75,-64,-81,-71,2
1597827558365,-74,-59,-69,-71,2
1597827559403,-74,-59,-69,-70,2
1597827561426,-71,-59,-70,-71,2
1597827562597,-86,-66,-70,-68,2
1597827576594,-89,-71,-75,-76,2
1597827588733,-87,-71,-82,-77,2
1597827590782,-83,-71,-79,-76,2
1597827592794,-82,-62,-74,-79,2
1597827604985,-90,-61,-72,-79,2
1597827606201,-79,-61,-74,-79,2
1597827618363,-85,-53,-74,-68,2
1597827620446,-97,-58,-75,-68,2
1597827622423,-78,-67,-80,-64,2
1597827634400,-79,-66,-76,-65,2
1597827636442,-80,-61,-72,-82,2
1597827648656,-100,-66,-81,-82,2
1597827649669,-91,-64,-80,-81,2
1597827650686,-93,-62,-82,-82,2
1597827651706,-96,-62,-80,-82,2
1597827652703,-93,-53,-77,-79,2
1597827664030,-93,-59,-79,-82,2
1597827665052,-95,-59,-76,-84,2
1597827665967,-95,-59,-81,-82,2
1597827667001,-95,-60,-76,-83,2
1597827680062,-93,-60,-79,-86,2
1597827682181,-85,-63,-79,-74,2
1597827693360,-85,-63,-75,-77,2
1597827695243,-85,-64,-76,-78,2
1597827697233,-85,-61,-70,-77,2
1597827709417,-82,-61,-71,-73,2
1597827711462,-83,-62,-77,-77,2
1597827712470,-83,-61,-71,-78,2
1597827724881,-82,-62,-71,-77,2
1597827727827,-83,-61,-72,-77,2
1597827738957,-84,-61,-75,-78,2
1597827739971,-83,-58,-70,-73,2
1597827741898,-81,-65,-74,-85,2
1597827742916,-85,-61,-81,-79,2
1597827754791,-87,-64,-79,-79,2
1597827755797,-87,-70,-81,-75,2
1597827756812,-87,-69,-81,-76,2
1597827758081,-83,-56,-79,-78,2
1597827769969,-97,-54,-79,-74,2
1597827771960,-91,-53,-78,-75,2
1597827773012,-89,-67,-78,-75,2
1597827784157,-79,-63,-78,-74,2
1597827785526,-79,-67,-74,-71,2
1597827787551,-77,-69,-73,-77,2
1597827798687,-76,-67,-73,-79,2
1597827800707,-77,-79,-80,-81,2
1597827802419,-77,-78,-80,-80,2
1597827813624,-84,-75,-80,-69,2
1597827815907,-85,-71,-79,-69,2
1597827829066,-89,-66,-78,-88,2
1597827831121,-83,-60,-75,-78,2
1597827832111,-83,-66,-77,-69,2
1597827844264,-83,-67,-73,-73,2
1597827845265,-84,-64,-70,-73,2
1597827847283,-93,-69,-72,-83,2
1597827858485,-89,-67,-73,-77,2
1597827859500,-85,-67,-74,-81,2
1597827860521,-91,-66,-73,-82,2
1597827862231,-83,-65,-74,-88,2
1597827873397,-85,-67,-74,-89,2
1597827874383,-84,-67,-73,-88,2
1597827875733,-85,-67,-74,-85,2
1597827877734,-82,-71,-82,-79,2
1597827888929,-82,-70,-85,-78,2
1597827890965,-81,-69,-85,-79,2
1597827892847,-75,-74,-73,-89,2
1597827903996,-76,-63,-73,-76,2
1597827905167,-76,-67,-73,-73,2
1597827907167,-76,-67,-73,-77,2
1597827918361,-76,-66,-79,-76,2
1597827919380,-76,-71,-72,-77,2
1597827922435,-82,-76,-71,-83,2
1597827933608,-84,-74,-71,-77,2
1597827935593,-83,-72,-72,-83,2
1597827937634,-80,-69,-74,-82,2
1597827948791,-82,-68,-73,-85,2
1597827950510,-81,-69,-76,-82,2
1597827951865,-81,-68,-74,-81,2
1597827964717,-88,-88,-74,-80,2
1597827965896,-89,-94,-80,-78,2
1597827978210,-82,-65,-80,-78,2
1597827979228,-82,-70,-80,-78,2
1597827980282,-83,-72,-82,-78,2
1597827981271,-82,-70,-82,-78,2
1597827982951,-82,-84,-86,-80,2
1597827994108,-81,-75,-85,-79,2
1597827995292,-81,-76,-85,-80,2
1597827996311,-82,-72,-85,-80,2
1597827997328,-83,-76,-81,-80,2
1597828009296,-83,-57,-82,-74,2
1597828010321,-82,-58,-82,-74,2
1597828011374,-83,-58,-77,-74,2
1597828023486,-78,-63,-73,-73,2
1597828024826,-80,-66,-78,-74,2
1597828025816,-80,-71,-80,-76,2
1597828026863,-81,-57,-79,-76,2
1597828038986,-87,-56,-80,-76,2
1597828040107,-87,-50,-80,-77,2
1597828042075,-82,-65,-79,-74,2
1597828054101,-75,-64,-73,-74,2
1597828055106,-86,-65,-70,-72,2
1597828056106,-82,-71,-81,-72,2
1597828068131,-79,-68,-81,-74,2
1597828069509,-77,-65,-82,-72,2
1597828071457,-72,-66,-96,-72,2
1597828083513,-77,-64,-78,-66,2
1597828084531,-78,-64,-79,-66,2
1597828085553,-84,-64,-90,-66,2
1597828098680,-84,-76,-97,-72,2
1597828099698,-84,-76,-99,-72,2
1597828101587,-84,-75,-94,-72,2
1597828102580,-84,-71,-76,-73,2
1597828114028,-84,-85,-79,-70,2
1597828116083,-87,-87,-80,-72,2
1597828128248,-97,-69,-88,-75,2
1597828130235,-97,-68,-88,-76,2
1597828131302,-89,-69,-88,-75,2
1597828146307,-95,-68,-87,-75,2
1597828175815,-96,-68,-85,-75,2
1597828176763,-93,-67,-85,-75,2
1597828188966,-95,-64,-83,-76,2
1597828189911,-98,-68,-84,-72,2
1597828191146,-91,-68,-85,-75,2
1597828192980,-99,-67,-85,-75,2
1597828204091,-95,-67,-85,-72,2
1597828205341,-98,-64,-85,-75,2
1597828206342,-99,-67,-85,-75,2
1597828207363,-93,-71,-85,-75,2
1597828220296,-96,-73,-85,-75,2
1597828221267,-91,-70,-87,-76,2
1597828222361,-93,-72,-90,-75,2
1597828234767,-95,-79,-82,-72,2
1597828237792,-82,-69,-84,-77,2
1597828250932,-81,-69,-82,-78,2
1597828251974,-85,-70,-84,-76,2
1597828264052,-85,-67,-84,-75,2
1597828265085,-82,-63,-84,-71,2
1597828267979,-82,-73,-72,-81,2
1597828278303,-80,-75,-72,-81,2
1597828279325,-76,-76,-71,-79,2
1597828280330,-81,-74,-71,-79,2
1597828281320,-81,-75,-71,-81,2
1597828293489,-81,-75,-71,-80,2
1597828295307,-80,-74,-71,-80,2
1597828296354,-82,-74,-71,-81,2
1597828308486,-83,-73,-77,-73,2
1597828309736,-84,-75,-76,-79,2
1597828310741,-84,-76,-76,-79,2
1597828312791,-84,-75,-76,-78,2
1597828323967,-84,-71,-76,-75,2
1597828324988,-85,-76,-75,-79,2
1597828325990,-83,-76,-76,-79,2
1597828327005,-87,-78,-75,-77,2
1597828328010,-79,-74,-72,-73,2
1597828340907,-77,-73,-73,-75,2
1597828342207,-79,-78,-73,-72,2
1597828355397,-79,-76,-72,-73,2
1597828356418,-79,-74,-70,-74,2
1597828368348,-84,-73,-74,-78,2
1597828370353,-85,-73,-74,-82,2
1597828371652,-85,-79,-75,-79,2
1597828372644,-81,-75,-81,-82,2
1597828383810,-81,-75,-81,-80,2
1597828385762,-76,-74,-78,-81,2
1597828386868,-82,-73,-81,-81,2
1597828387895,-87,-68,-70,-82,2
1597828401062,-88,-63,-70,-77,2
1597828402786,-87,-67,-73,-73,2
1597828414877,-88,-66,-75,-75,2
1597828415928,-88,-69,-74,-74,2
1597828417236,-82,-71,-74,-75,2
1597828428386,-84,-76,-79,-75,2
1597828430089,-84,-76,-79,-75,2
1597828431127,-85,-76,-79,-75,2
1597828432177,-86,-76,-79,-75,2
1597828443287,-84,-76,-73,-75,2
1597828444304,-85,-77,-74,-77,2
1597828445328,-82,-79,-76,-76,2
1597828446330,-86,-75,-76,-74,2
1597828447454,-91,-67,-77,-90,2
1597828459939,-90,-69,-77,-88,2
1597828461875,-90,-69,-76,-90,2
1597828473834,-91,-70,-77,-76,2
1597828475090,-91,-70,-77,-76,2
1597828476091,-87,-70,-77,-78,2
1597828477894,-90,-70,-76,-76,2
1597828490066,-90,-70,-76,-76,2
1597828491330,-90,-70,-77,-76,2
1597828492329,-93,-59,-82,-75,2
1597828504520,-94,-63,-82,-71,2
1597828505537,-91,-57,-80,-70,2
1597828518452,-84,-60,-88,-78,2
1597828519469,-76,-54,-73,-75,2
1597828521391,-76,-52,-72,-73,2
1597828533866,-85,-52,-81,-72,2
1597828535744,-81,-56,-85,-79,2
1597828536707,-81,-56,-83,-80,2
1597828538008,-81,-56,-93,-76,2
1597828549098,-80,-56,-88,-78,2
1597828550100,-80,-56,-94,-77,2
1597828552123,-79,-56,-78,-70,2
1597828564054,-83,-63,-73,-76,2
1597828565102,-85,-65,-77,-74,2
1597828567121,-88,-55,-84,-73,2
1597828578529,-84,-72,-84,-66,2
1597828580351,-84,-75,-82,-71,2
1597828581638,-83,-74,-81,-70,2
1597828582654,-79,-59,-79,-68,2
1597828594328,-95,-62,-78,-69,2
1597828595521,-95,-55,-76,-69,2
1597828596818,-86,-60,-77,-69,2
1597828597826,-74,-62,-78,-65,2
1597828609728,-77,-63,-76,-65,2
1597828612018,-73,-64,-76,-63,2
1597828623741,-79,-61,-80,-69,2
1597828624760,-74,-64,-87,-68,2
1597828625764,-81,-63,-74,-68,2
1597828627787,-84,-83,-80,-78,2
1597828639962,-80,-65,-82,-61,2
1597828640939,-78,-73,-74,-67,2
1597828642444,-73,-56,-70,-71,2
1597828653590,-75,-50,-76,-71,2
1597828654610,-78,-63,-80,-68,2
1597828655624,-76,-64,-81,-67,2
1597828656630,-83,-60,-87,-68,2
1597828668499,-85,-60,-97,-67,2
1597828670380,-82,-60,-85,-77,2
1597828672774,-86,-62,-77,-67,2
1597828683903,-92,-65,-77,-67,2
1597828684940,-90,-65,-78,-67,2
1597828685924,-91,-65,-82,-70,2
1597828687982,-81,-68,-75,-80,2
1597828700977,-82,-69,-74,-77,2
1597828702236,-83,-73,-74,-79,2
1597828713409,-83,-73,-73,-80,2
1597828714453,-85,-73,-72,-81,2
1597828715450,-88,-74,-73,-77,2
1597828717484,-87,-73,-74,-66,2
1597828728652,-82,-73,-74,-63,2
1597828731123,-83,-68,-67,-72,2
1597828743770,-82,-67,-82,-71,2
1597828745306,-82,-68,-67,-74,2
1597828746625,-85,-73,-68,-68,2
1597828747606,-80,-65,-70,-70,2
1597828759455,-76,-73,-71,-81,2
1597828760474,-78,-73,-72,-85,2
1597828763041,-88,-63,-78,-67,2
1597828774202,-74,-58,-81,-73,2
1597828775204,-88,-59,-69,-69,2
1597828776194,-87,-57,-74,-91,2
1597828788357,-89,-56,-89,-75,2
1597828789409,-82,-63,-88,-70,2
1597828791407,-82,-58,-83,-69,2
1597828792424,-79,-57,-82,-72,2
1597828803552,-75,-58,-76,-71,2
1597828805588,-91,-56,-68,-67,2
1597828806581,-73,-55,-70,-71,2
1597828818231,-72,-67,-74,-69,2
1597828820756,-74,-63,-76,-70,2
1597828821768,-74,-62,-77,-71,2
1597828822860,-74,-69,-83,-83,2
1597828834008,-72,-64,-84,-70,2
1597828835048,-75,-63,-73,-74,2
1597828836069,-74,-64,-78,-70,2
1597828837858,-76,-65,-79,-72,2
1597828849060,-75,-67,-78,-71,2
1597828850062,-76,-67,-78,-72,2
1597828851626,-79,-64,-78,-71,2
1597828852659,-79,-84,-78,-73,2
1597828864412,-78,-76,-77,-72,2
1597828866283,-78,-72,-72,-74,2
1597828878452,-84,-70,-72,-75,2
1597828879447,-81,-68,-73,-71,2
1597828880713,-83,-66,-72,-78,2
1597828881712,-86,-66,-72,-78,2
1597828882733,-82,-64,-72,-75,2
1597828895887,-84,-60,-73,-73,2
1597828909090,-79,-60,-73,-80,2
1597828911488,-78,-59,-73,-85,2
1597828924322,-85,-60,-72,-82,2
1597828927073,-83,-54,-73,-85,2
1597828938515,-80,-49,-72,-73,2
1597828939533,-83,-49,-72,-71,2
1597828941285,-89,-54,-73,-76,2
1597828942372,-88,-53,-75,-75,2
1597828953457,-78,-57,-78,-65,2
1597828954772,-77,-57,-75,-65,2
1597828957831,-77,-58,-74,-66,2
1597828969970,-78,-59,-73,-66,2
1597828971993,-78,-60,-73,-79,2
1597828983153,-78,-63,-73,-76,2
1597828984154,-79,-58,-73,-77,2
1597828985172,-78,-58,-73,-73,2
1597828987208,-77,-57,-76,-78,2
1597828998342,-77,-52,-73,-73,2
1597829000107,-77,-57,-76,-78,2
1597829001405,-76,-57,-76,-78,2
1597829002677,-82,-65,-82,-71,2
1597829013864,-82,-65,-82,-73,2
1597829014851,-84,-65,-79,-73,2
1597829015873,-80,-65,-86,-73,2
1597829016888,-79,-64,-76,-76,2
1597829017883,-72,-68,-78,-97,2
1597829029564,-72,-69,-76,-91,2
1597829031052,-72,-69,-77,-83,2
1597829032824,-72,-68,-78,-90,2
1597829043974,-72,-67,-77,-86,2
1597829045017,-72,-69,-76,-89,2
1597829046014,-71,-68,-77,-89,2
1597830867755,-95,-80,-42,-97,3
1597830880493,-100,-80,-42,-96,3
1597830881705,-96,-82,-42,-91,3
1597830893644,-94,-82,-42,-91,3
1597830895703,-94,-82,-41,-91,3
1597830896676,-94,-82,-39,-85,3
1597830909905,-88,-81,-67,-79,3
1597830910918,-74,-81,-66,-84,3
1597830911933,-75,-78,-67,-86,3
1597830923095,-77,-78,-57,-85,3
1597830924138,-77,-78,-58,-85,3
1597830925283,-73,-78,-57,-85,3
1597830926301,-77,-78,-58,-85,3
1597830927280,-77,-77,-57,-83,3
1597830939353,-74,-77,-56,-86,3
1597830940352,-75,-77,-56,-87,3
1597830941354,-75,-77,-56,-84,3
1597830954503,-75,-75,-56,-84,3
1597830955511,-75,-75,-56,-84,3
1597830957263,-75,-76,-57,-79,3
1597830968729,-75,-76,-57,-84,3
1597830970728,-75,-76,-57,-84,3
1597830972746,-77,-77,-61,-84,3
1597830984098,-77,-77,-60,-84,3
1597830985113,-78,-77,-60,-84,3
1597830986667,-78,-76,-60,-83,3
1597830998157,-76,-76,-58,-84,3
1597830999156,-76,-75,-58,-84,3
1597831000181,-76,-76,-58,-85,3
1597831001254,-79,-79,-62,-93,3
1597831002299,-78,-78,-54,-84,3
1597831013370,-74,-79,-54,-82,3
1597831014375,-73,-77,-54,-82,3
1597831016431,-74,-76,-53,-84,3
1597831017414,-74,-79,-51,-84,3
1597831028592,-79,-78,-51,-82,3
1597831030489,-77,-81,-51,-82,3
1597831032559,-90,-80,-53,-87,3
1597831043704,-73,-97,-53,-86,3
1597831044700,-73,-84,-54,-84,3
1597831045787,-73,-79,-53,-84,3
1597831047722,-82,-83,-61,-82,3
1597831058756,-83,-80,-61,-82,3
1597831060149,-84,-84,-60,-81,3
1597831062158,-82,-82,-64,-82,3
1597831073335,-82,-82,-60,-82,3
1597831074917,-82,-82,-65,-82,3
1597831076291,-81,-83,-64,-82,3
1597831077316,-81,-82,-64,-82,3
1597831089104,-81,-83,-62,-82,3
1597831090113,-80,-84,-62,-82,3
1597831091159,-79,-84,-61,-79,3
1597831092140,-74,-84,-58,-82,3
1597831103696,-72,-82,-66,-85,3
1597831104715,-70,-81,-65,-85,3
1597831105705,-73,-82,-66,-85,3
1597831107801,-72,-79,-71,-80,3
1597831118839,-72,-79,-70,-80,3
1597831119822,-73,-79,-70,-79,3
1597831120834,-73,-79,-70,-79,3
1597831121852,-72,-85,-65,-87,3
1597831135182,-78,-85,-64,-88,3
1597831136203,-70,-79,-64,-82,3
1597831137216,-72,-82,-66,-79,3
1597831150305,-71,-78,-64,-79,3
1597831151347,-72,-79,-63,-80,3
1597831152380,-70,-81,-63,-79,3
1597831164488,-71,-79,-59,-78,3
1597831165539,-71,-80,-63,-79,3
1597831167202,-71,-80,-63,-79,3
1597831179299,-70,-76,-64,-78,3
1597831180379,-70,-80,-65,-79,3
1597831181812,-70,-82,-63,-78,3
1597831193035,-70,-82,-65,-79,3
1597831193965,-70,-80,-66,-77,3
1597831196598,-70,-82,-65,-74,3
1597831197581,-79,-78,-66,-82,3
1597831208715,-80,-78,-69,-81,3
1597831209755,-80,-77,-68,-81,3
1597831210744,-81,-77,-69,-81,3
1597831211762,-81,-79,-69,-81,3
1597831223384,-76,-82,-69,-83,3
1597831224424,-76,-80,-69,-80,3
1597831225972,-76,-80,-69,-80,3
1597831227378,-82,-80,-61,-78,3
1597831238492,-78,-89,-61,-80,3
1597831240551,-79,-79,-61,-80,3
1597831241620,-79,-79,-62,-80,3
1597831242650,-73,-80,-62,-78,3
1597831253731,-72,-75,-62,-79,3
1597831256742,-73,-79,-62,-84,3
1597831257760,-72,-84,-66,-79,3
1597831269571,-72,-82,-65,-86,3
1597831270584,-72,-83,-65,-89,3
1597831271604,-72,-84,-62,-92,3
1597831283164,-72,-82,-64,-93,3
1597831287142,-72,-82,-66,-85,3
1597831300353,-73,-81,-66,-85,3
1597831301370,-73,-81,-66,-87,3
1597831313145,-73,-80,-66,-91,3
1597831315603,-73,-79,-67,-73,3
1597831328800,-75,-81,-77,-73,3
1597831329783,-79,-81,-87,-73,3
1597831331403,-78,-82,-78,-73,3
1597831332406,-72,-79,-66,-82,3
1597831343545,-71,-79,-65,-81,3
1597831345081,-72,-80,-66,-81,3
1597831346102,-68,-76,-66,-81,3
1597831347589,-72,-76,-66,-81,3
1597831359184,-72,-80,-66,-81,3
1597831360340,-72,-80,-66,-81,3
1597831361361,-72,-79,-66,-81,3
1597831362346,-72,-80,-66,-81,3
1597831373496,-72,-80,-66,-81,3
1597831375535,-72,-80,-66,-81,3
1597831377568,-72,-79,-66,-81,3
1597831389711,-72,-80,-66,-81,3
1597831391180,-72,-80,-66,-81,3
1597831392201,-72,-81,-73,-80,3
1597831403874,-75,-80,-65,-80,3
1597831405821,-73,-84,-66,-85,3
1597831406830,-68,-82,-61,-81,3
1597831417975,-74,-73,-63,-85,3
1597831418990,-73,-75,-66,-80,3
1597831420557,-78,-87,-72,-85,3
1597831433259,-78,-87,-61,-87,3
1597831434739,-78,-87,-61,-86,3
1597831435754,-78,-86,-61,-86,3
1597831437334,-78,-91,-64,-88,3
1597831450476,-76,-89,-64,-88,3
1597831451527,-78,-86,-65,-85,3
1597831463643,-75,-84,-61,-82,3
1597831466711,-71,-84,-60,-84,3
1597831478784,-71,-84,-59,-84,3
1597831479805,-70,-82,-63,-83,3
1597831496140,-75,-84,-61,-87,3
1597831497156,-72,-84,-59,-75,3
1597831508744,-81,-75,-63,-71,3
1597831510184,-75,-81,-58,-80,3
1597831511170,-74,-84,-58,-81,3
1597831512369,-73,-82,-57,-81,3
1597831525584,-72,-82,-57,-81,3
1597831527603,-71,-85,-57,-79,3
1597831538724,-71,-85,-57,-79,3
1597831540782,-71,-85,-58,-81,3
1597831541816,-72,-70,-61,-80,3
1597831553702,-73,-71,-63,-86,3
1597831555970,-73,-70,-62,-86,3
1597831568128,-73,-69,-63,-86,3
1597831569582,-73,-70,-63,-86,3
1597831572634,-79,-78,-61,-81,3
1597831583479,-86,-76,-61,-85,3
1597831585348,-73,-76,-76,-79,3
1597831586349,-74,-78,-65,-80,3
1597831587333,-85,-79,-57,-79,3
1597831598541,-85,-80,-51,-79,3
1597831599568,-87,-81,-53,-77,3
1597831600688,-70,-78,-54,-79,3
1597831602385,-79,-75,-55,-94,3
1597831614552,-71,-78,-54,-82,3
1597831616581,-70,-73,-51,-83,3
1597831628431,-73,-78,-51,-84,3
1597831629973,-73,-77,-51,-82,3
1597831631800,-73,-81,-51,-82,3
1597831642936,-69,-77,-51,-85,3
1597831644086,-72,-78,-90,-85,3
1597831645143,-72,-77,-51,-79,3
1597831646188,-71,-73,-54,-85,3
1597831658338,-71,-89,-77,-85,3
1597831659941,-71,-85,-72,-85,3
1597831673567,-70,-83,-60,-88,3
1597831675333,-69,-84,-59,-86,3
1597831676358,-70,-82,-61,-82,3
1597831687965,-67,-88,-67,-79,3
1597831688986,-70,-85,-71,-84,3
1597831690014,-69,-86,-68,-82,3
1597831691003,-70,-85,-67,-84,3
1597831692024,-70,-84,-69,-83,3
1597831704741,-70,-79,-67,-82,3
1597831707230,-70,-79,-63,-82,3
1597831718310,-70,-79,-64,-83,3
1597831721403,-70,-81,-64,-85,3
1597831722409,-70,-80,-64,-88,3
1597831734070,-70,-80,-64,-88,3
1597831736071,-70,-80,-64,-88,3
1597831737173,-70,-80,-63,-89,3
1597831749313,-71,-80,-63,-87,3
1597831751354,-72,-80,-57,-88,3
1597831764492,-72,-79,-56,-76,3
1597831765835,-72,-78,-56,-76,3
1597831767526,-72,-72,-68,-94,3
1597831779064,-74,-83,-72,-79,3
1597831781233,-71,-80,-75,-86,3
1597831782773,-68,-79,-66,-87,3
1597831793430,-76,-82,-62,-79,3
1597831794972,-70,-71,-65,-85,3
1597831796013,-73,-73,-67,-82,3
1597831796988,-72,-72,-65,-80,3
1597831808169,-72,-71,-65,-94,3
1597831809194,-72,-71,-66,-96,3
1597831812257,-74,-70,-65,-82,3
1597831823642,-73,-73,-68,-80,3
1597831824636,-74,-74,-70,-81,3
1597831826425,-74,-74,-71,-77,3
1597831837771,-75,-96,-64,-76,3
1597831839829,-75,-94,-64,-77,3
1597831841671,-75,-75,-63,-77,3
1597831853277,-72,-72,-66,-87,3
1597831854185,-68,-71,-68,-78,3
1597831857082,-70,-80,-73,-77,3
1597831868421,-71,-76,-71,-73,3
1597831884506,-76,-75,-68,-73,3
1597831886532,-75,-76,-71,-73,3
1597831887695,-83,-72,-63,-82,3
1597831898720,-69,-75,-61,-78,3
1597831900567,-86,-77,-61,-82,3
1597831901777,-76,-77,-63,-82,3
1597831913736,-77,-75,-64,-76,3
1597831915924,-79,-77,-64,-76,3
1597831916924,-71,-83,-66,-85,3
1597831929080,-69,-82,-60,-85,3
1597831931088,-73,-82,-61,-82,3
1597831943269,-76,-72,-69,-75,3
1597831945999,-75,-73,-72,-79,3
1597831947323,-70,-74,-67,-80,3
1597831958465,-70,-82,-64,-81,3
1597831959493,-71,-84,-62,-80,3
1597831960772,-71,-81,-62,-80,3
1597831962544,-80,-93,-70,-91,3
1597831974683,-76,-91,-69,-92,3
1597831977411,-74,-92,-69,-92,3
1597831989746,-78,-94,-68,-92,3
1597832003400,-82,-88,-67,-88,3
1597832019622,-76,-91,-68,-79,3
1597832021251,-76,-79,-67,-79,3
1597832033448,-76,-81,-67,-88,3
1597832034463,-75,-84,-68,-88,3
1597832037487,-76,-82,-70,-85,3
1597832048626,-76,-81,-70,-84,3
1597832049642,-73,-82,-71,-85,3
1597832051683,-75,-82,-71,-79,3
1597832063035,-69,-73,-70,-84,3
1597832064002,-70,-79,-72,-79,3
1597832065043,-68,-76,-69,-76,3
1597832066047,-68,-81,-68,-76,3
1597832079073,-75,-80,-69,-84,3
1597832081098,-73,-79,-69,-84,3
1597832082072,-78,-81,-67,-82,3
1597832093236,-78,-82,-68,-79,3
1597832094639,-73,-80,-70,-79,3
1597832096423,-77,-89,-73,-82,3
1597832097697,-69,-74,-73,-79,3
1597832109273,-71,-73,-73,-79,3
1597832111293,-71,-74,-72,-79,3
1597832112328,-72,-75,-70,-79,3
1597832123420,-73,-75,-70,-74,3
1597832124448,-72,-75,-71,-74,3
1597832125470,-72,-75,-69,-73,3
1597832127129,-72,-76,-71,-74,3
1597832138254,-72,-71,-70,-74,3
1597832139992,-73,-76,-70,-74,3
1597832141736,-73,-76,-70,-74,3
1597832153454,-73,-75,-71,-74,3
1597832155515,-73,-74,-69,-73,3
1597832157195,-73,-73,-62,-82,3
1597832169320,-75,-69,-62,-82,3
1597832170336,-75,-69,-62,-82,3
1597832172085,-68,-78,-62,-82,3
1597832183259,-75,-73,-65,-86,3
1597832184517,-77,-70,-67,-96,3
1597832185976,-69,-69,-65,-86,3
1597832187257,-77,-75,-61,-73,3
1597832198764,-72,-74,-63,-74,3
1597832200136,-73,-75,-64,-75,3
1597832201422,-70,-81,-61,-74,3
1597832202468,-69,-87,-66,-75,3
1597832214447,-69,-78,-65,-72,3
1597832215387,-72,-79,-66,-73,3
1597832216409,-71,-77,-66,-70,3
1597832228097,-70,-75,-67,-72,3
1597832230154,-73,-88,-67,-72,3
1597832231165,-71,-73,-63,-83,3
1597832243339,-76,-70,-65,-82,3
1597832244323,-82,-71,-64,-83,3
1597832245337,-78,-72,-65,-81,3
1597832258550,-77,-74,-64,-78,3
1597832260627,-84,-73,-62,-77,3
1597832273774,-76,-87,-57,-81,3
1597832274798,-76,-87,-56,-81,3
1597832276788,-76,-75,-56,-84,3
1597832288410,-76,-75,-61,-83,3
1597832289446,-78,-75,-61,-87,3
1597832290961,-76,-75,-61,-81,3
1597832292050,-74,-75,-62,-88,3
1597832303342,-85,-79,-65,-82,3
1597832304261,-90,-75,-67,-86,3
1597832306243,-73,-74,-60,-81,3
1597832307282,-77,-74,-62,-84,3
1597832319376,-76,-78,-61,-87,3
1597832321006,-79,-75,-62,-93,3
1597832333172,-76,-75,-61,-83,3
1597832334568,-75,-75,-59,-83,3
1597832335585,-88,-76,-60,-86,3
1597832337248,-74,-73,-61,-82,3
1597832348396,-74,-73,-62,-81,3
1597832349879,-74,-74,-61,-83,3
1597832350892,-73,-75,-58,-76,3
1597832363099,-72,-70,-59,-82,3
1597832364082,-77,-87,-62,-79,3
1597832366540,-72,-88,-58,-82,3
1597832367567,-85,-87,-62,-85,3
1597832379287,-85,-88,-61,-85,3
1597832381342,-81,-85,-66,-86,3
1597832393339,-82,-71,-65,-79,3
1597832394946,-85,-76,-64,-78,3
1597832397681,-78,-76,-77,-91,3
1597832408699,-79,-76,-79,-90,3
1597832410740,-78,-76,-76,-85,3
1597832412524,-82,-78,-58,-90,3
1597832425312,-80,-88,-60,-87,3
1597832427394,-74,-75,-84,-77,3
1597832439577,-74,-76,-57,-75,3
1597832441181,-74,-76,-57,-76,3
1597832453367,-75,-75,-56,-77,3
1597832454766,-73,-72,-57,-78,3
1597832456795,-81,-81,-56,-79,3
1597832468983,-81,-78,-60,-78,3
1597832470990,-82,-78,-60,-78,3
1597832472671,-85,-94,-60,-82,3
1597832483501,-95,-88,-62,-84,3
1597832484545,-78,-91,-58,-79,3
1597832486182,-85,-90,-59,-80,3
1597832487204,-75,-69,-73,-80,3
1597832499344,-75,-70,-59,-81,3
1597832501383,-70,-70,-60,-79,3
1597832513517,-71,-79,-59,-79,3
1597832516564,-72,-79,-60,-79,3
1597832528202,-75,-70,-60,-79,3
1597832530246,-75,-70,-60,-79,3
1597832531262,-75,-72,-60,-79,3
1597832532282,-77,-78,-61,-82,3
1597832544474,-77,-78,-62,-83,3
1597832545478,-78,-79,-61,-81,3
1597832558155,-72,-79,-56,-90,3
1597832559175,-72,-82,-61,-91,3
1597832561189,-73,-81,-56,-91,3
1597832575096,-71,-75,-60,-88,3
1597832589289,-73,-80,-58,-88,3
1597832591328,-76,-82,-59,-88,3
1597832592326,-78,-83,-61,-87,3
1597832603469,-76,-87,-69,-90,3
1597832605823,-75,-81,-66,-92,3
1597832606844,-76,-79,-60,-91,3
1597832618645,-75,-81,-60,-91,3
1597832620007,-76,-82,-61,-91,3
1597832621060,-82,-79,-60,-92,3
1597832622079,-75,-79,-57,-82,3
1597832633219,-75,-78,-57,-82,3
1597832635238,-75,-78,-56,-83,3
1597832636258,-74,-77,-59,-83,3
1597832647982,-75,-82,-59,-78,3
1597832649401,-77,-88,-57,-79,3
1597832650389,-78,-90,-58,-79,3
1597832652040,-73,-71,-65,-79,3
1597832663644,-73,-73,-85,-81,3
1597832664648,-73,-72,-92,-83,3
1597832666408,-77,-70,-68,-82,3
1597832879205,-94,-74,-85,-70,4
1597832889855,-91,-74,-79,-68,4
1597832892439,-85,-76,-95,-62,4
1597832905631,-78,-75,-91,-63,4
1597832906670,-78,-75,-84,-62,4
1597832907846,-81,-75,-86,-61,4
1597832919896,-77,-79,-87,-62,4
1597832921903,-78,-78,-89,-62,4
1597832923273,-77,-78,-87,-62,4
1597832937178,-77,-79,-88,-62,4
1597832938184,-78,-87,-75,-62,4
1597832949346,-84,-83,-78,-63,4
1597832950346,-82,-76,-78,-67,4
1597832952369,-81,-82,-76,-69,4
1597832953397,-79,-82,-82,-69,4
1597832966591,-80,-79,-83,-68,4
1597832967617,-79,-79,-85,-68,4
1597832968610,-79,-79,-85,-65,4
1597832979704,-81,-78,-83,-65,4
1597832980857,-81,-77,-83,-64,4
1597832983814,-80,-79,-79,-64,4
1597832994954,-85,-76,-80,-62,4
1597832996342,-81,-81,-84,-66,4
1597832997348,-78,-79,-83,-69,4
1597832998367,-80,-80,-84,-67,4
1597833010255,-79,-79,-84,-67,4
1597833011569,-79,-81,-84,-66,4
1597833013278,-88,-82,-81,-70,4
1597833026516,-89,-98,-78,-62,4
1597833028456,-93,-93,-81,-62,4
1597833039660,-91,-94,-81,-61,4
1597833043677,-89,-91,-81,-61,4
1597833054858,-88,-84,-80,-61,4
1597833056272,-87,-84,-80,-61,4
1597833057942,-82,-85,-80,-61,4
1597833071086,-88,-81,-88,-67,4
1597833073117,-90,-78,-77,-63,4
1597833085248,-80,-82,-86,-63,4
1597833086237,-79,-77,-88,-64,4
1597833087285,-87,-81,-85,-63,4
1597833099447,-91,-84,-85,-70,4
1597833101443,-90,-85,-84,-69,4
1597833102437,-88,-83,-80,-69,4
1597833114620,-86,-76,-78,-63,4
1597833116660,-82,-69,-84,-60,4
1597833117802,-84,-71,-77,-53,4
1597833119135,-88,-74,-78,-53,4
1597833130253,-85,-69,-78,-53,4
1597833131888,-83,-67,-79,-56,4
1597833132863,-87,-66,-81,-54,4
1597833144393,-79,-66,-89,-48,4
1597833146141,-76,-66,-89,-48,4
1597833149161,-77,-66,-91,-48,4
1597833160377,-77,-66,-81,-48,4
1597833162366,-82,-76,-91,-48,4
1597833163371,-79,-74,-89,-53,4
1597833174540,-78,-78,-85,-53,4
1597833175873,-77,-76,-87,-54,4
1597833177593,-78,-72,-81,-54,4
1597833178591,-76,-73,-84,-54,4
1597833191742,-76,-76,-83,-53,4
1597833192748,-76,-73,-80,-47,4
1597833193799,-77,-76,-80,-53,4
1597833204933,-76,-72,-82,-54,4
1597833206227,-76,-75,-89,-54,4
1597833207271,-79,-72,-80,-57,4
1597833219434,-82,-72,-80,-61,4
1597833221091,-81,-72,-78,-60,4
1597833222134,-78,-71,-79,-60,4
1597833223160,-78,-73,-81,-60,4
1597833224175,-79,-78,-82,-67,4
1597833236687,-80,-82,-80,-59,4
1597833249520,-78,-75,-79,-66,4
1597833250559,-75,-79,-79,-67,4
1597833251563,-79,-78,-76,-60,4
1597833264728,-75,-91,-71,-60,4
1597833265866,-75,-85,-71,-60,4
1597833267721,-76,-88,-75,-60,4
1597833268798,-76,-73,-73,-58,4
1597833279981,-75,-75,-73,-63,4
1597833282919,-74,-81,-74,-60,4
1597833294529,-73,-87,-71,-60,4
1597833295525,-75,-84,-72,-59,4
1597833296546,-73,-72,-74,-60,4
1597833297550,-75,-72,-73,-59,4
1597833310693,-73,-79,-73,-60,4
1597833313667,-78,-73,-79,-52,4
1597833326562,-76,-75,-79,-54,4
1597833328802,-78,-75,-80,-53,4
1597833339924,-83,-70,-81,-53,4
1597833340943,-79,-69,-79,-53,4
1597833341961,-77,-71,-85,-53,4
1597833342965,-76,-76,-86,-53,4
1597833343985,-81,-76,-79,-53,4
1597833355960,-79,-75,-85,-53,4
1597833357162,-82,-70,-79,-53,4
1597833358177,-78,-74,-81,-54,4
1597833371168,-79,-80,-87,-53,4
1597833373645,-93,-71,-82,-54,4
1597833387296,-92,-72,-78,-57,4
1597833388317,-82,-72,-79,-53,4
1597833399456,-82,-73,-77,-64,4
1597833400752,-80,-72,-75,-61,4
1597833401751,-76,-70,-78,-62,4
1597833402735,-75,-69,-81,-65,4
1597833415777,-79,-67,-82,-64,4
1597833416798,-79,-67,-77,-64,4
1597833418723,-76,-67,-94,-65,4
1597833429860,-77,-70,-74,-65,4
1597833431399,-79,-64,-76,-62,4
1597833432434,-76,-66,-78,-61,4
1597833434091,-75,-68,-73,-64,4
1597833445583,-78,-69,-77,-71,4
1597833446591,-78,-69,-78,-70,4
1597833447626,-78,-69,-80,-65,4
1597833459466,-79,-67,-74,-64,4
1597833460482,-79,-67,-74,-64,4
1597833461500,-78,-67,-75,-54,4
1597833462521,-77,-69,-75,-64,4
1597833463527,-79,-69,-76,-76,4
1597833474698,-77,-67,-77,-73,4
1597833475702,-78,-64,-77,-73,4
1597833477488,-75,-66,-76,-82,4
1597833490219,-75,-67,-79,-64,4
1597833491233,-77,-66,-84,-76,4
1597833492933,-74,-65,-75,-67,4
1597833504410,-81,-66,-86,-64,4
1597833506437,-77,-66,-82,-65,4
1597833507424,-78,-66,-81,-64,4
1597833508471,-78,-72,-84,-63,4
1597833519628,-84,-73,-79,-75,4
1597833520646,-84,-76,-77,-65,4
1597833522392,-87,-72,-77,-73,4
1597833523686,-87,-71,-79,-84,4
1597833534841,-80,-82,-84,-69,4
1597833535862,-86,-71,-84,-66,4
1597833538951,-76,-71,-76,-65,4
1597833550534,-75,-74,-78,-65,4
1597833552833,-77,-74,-80,-66,4
1597833553850,-75,-69,-81,-67,4
1597833565004,-75,-71,-81,-67,4
1597833566126,-75,-67,-80,-67,4
1597833567025,-74,-71,-80,-69,4
1597833568816,-73,-80,-79,-67,4
1597833579922,-73,-81,-73,-54,4
1597833581542,-73,-81,-77,-56,4
1597833583563,-77,-77,-78,-56,4
1597833594703,-72,-78,-73,-56,4
1597833596474,-72,-78,-75,-56,4
1597833597484,-72,-79,-75,-52,4
1597833610641,-72,-78,-76,-56,4
1597833611627,-71,-78,-76,-57,4
1597833612972,-73,-82,-79,-56,4
1597833613985,-79,-80,-70,-55,4
1597833625170,-79,-78,-70,-58,4
1597833626991,-79,-79,-70,-58,4
1597833628977,-86,-80,-73,-71,4
1597833640082,-79,-66,-72,-71,4
1597833641358,-81,-66,-73,-72,4
1597833642381,-84,-66,-71,-72,4
1597833643874,-83,-66,-71,-73,4
1597833655318,-87,-66,-72,-72,4
1597833656564,-80,-67,-70,-69,4
1597833657608,-82,-69,-71,-69,4
1597833669477,-82,-68,-68,-65,4
1597833670534,-82,-67,-68,-66,4
1597833671551,-79,-67,-69,-66,4
1597833673457,-81,-67,-68,-69,4
1597833684712,-87,-68,-68,-70,4
1597833686033,-84,-68,-68,-70,4
1597833687037,-85,-81,-68,-75,4
1597833700247,-87,-81,-72,-69,4
1597833701259,-85,-81,-72,-66,4
1597833702972,-85,-74,-72,-67,4
1597833714404,-93,-76,-73,-74,4
1597833717874,-99,-73,-73,-73,4
1597833718906,-82,-75,-77,-74,4
1597833730284,-82,-74,-77,-89,4
1597833732283,-82,-73,-77,-76,4
1597833733300,-83,-73,-77,-75,4
1597833744865,-82,-74,-75,-80,4
1597833746499,-82,-75,-79,-78,4
1597833747482,-82,-76,-78,-76,4
1597833748516,-87,-69,-81,-71,4
1597833760445,-88,-69,-80,-59,4
1597833762080,-88,-69,-78,-58,4
1597833763737,-85,-69,-81,-58,4
1597833774868,-87,-69,-80,-52,4
1597833775849,-87,-69,-79,-57,4
1597833777261,-87,-69,-81,-58,4
1597833778277,-88,-67,-78,-59,4
1597833789830,-88,-67,-73,-58,4
1597833791853,-79,-73,-69,-64,4
1597833793085,-86,-83,-72,-58,4
1597833806000,-85,-72,-77,-59,4
1597833807730,-86,-73,-77,-59,4
1597833809067,-88,-75,-78,-63,4
1597833820208,-85,-74,-75,-62,4
1597833821211,-93,-76,-76,-62,4
1597833822531,-97,-79,-77,-69,4
1597833834655,-88,-72,-78,-62,4
1597833835626,-86,-69,-76,-62,4
1597833837409,-85,-74,-82,-61,4
1597833838410,-83,-75,-78,-61,4
1597833849890,-84,-74,-78,-61,4
1597833852626,-84,-75,-78,-56,4
1597833853962,-82,-78,-83,-62,4
1597833865139,-82,-79,-82,-62,4
1597833867179,-79,-79,-82,-62,4
1597833868141,-82,-78,-80,-61,4
1597833869145,-78,-67,-84,-67,4
1597833880755,-77,-68,-86,-66,4
1597833882006,-77,-68,-86,-66,4
1597833884029,-81,-73,-81,-63,4
1597833895198,-79,-86,-89,-61,4
1597833896218,-81,-78,-79,-63,4
1597833897241,-79,-79,-79,-67,4
1597833909441,-79,-80,-79,-65,4
1597833911422,-79,-79,-78,-67,4
1597833912810,-79,-79,-79,-68,4
1597833913826,-74,-75,-78,-67,4
1597833924984,-69,-72,-74,-67,4
1597833926012,-77,-72,-76,-67,4
1597833927921,-76,-80,-72,-62,4
1597833939582,-76,-79,-76,-64,4
1597833942203,-76,-82,-76,-65,4
1597833943222,-72,-80,-78,-65,4
1597833955290,-75,-77,-78,-66,4
1597833956785,-75,-78,-78,-67,4
1597833957905,-75,-77,-78,-65,4
1597833969997,-74,-76,-77,-66,4
1597833972013,-75,-76,-76,-65,4
1597833973702,-73,-75,-82,-63,4
1597833986199,-76,-75,-83,-62,4
1597833988235,-74,-75,-82,-61,4
1597833999361,-73,-78,-81,-62,4
1597834001967,-73,-77,-79,-62,4
1597834003683,-76,-75,-79,-68,4
1597834015860,-76,-73,-78,-61,4
1597834017674,-76,-72,-79,-61,4
1597834018740,-76,-73,-81,-61,4
1597834030548,-76,-74,-79,-59,4
1597834033614,-75,-76,-81,-61,4
1597834044794,-72,-72,-81,-59,4
1597834045752,-73,-71,-79,-56,4
1597834047817,-73,-72,-78,-58,4
1597834059941,-73,-70,-78,-58,4
1597834060930,-75,-72,-82,-58,4
1597834063815,-79,-72,-70,-68,4
1597834075471,-76,-69,-69,-63,4
1597834079214,-79,-73,-67,-64,4
1597834090702,-78,-72,-67,-65,4
1597834092262,-87,-72,-70,-64,4
1597834093242,-84,-72,-70,-64,4
1597834104603,-88,-77,-70,-63,4
1597834107094,-88,-76,-70,-64,4
1597834108093,-88,-77,-70,-64,4
1597834109110,-87,-77,-69,-64,4
1597834120120,-85,-76,-69,-64,4
1597834121248,-85,-77,-70,-65,4
1597834122616,-87,-76,-69,-64,4
1597834134750,-80,-73,-69,-64,4
1597834135768,-80,-73,-69,-64,4
1597834136786,-81,-71,-70,-62,4
1597834138016,-81,-70,-68,-61,4
1597834151054,-81,-72,-69,-60,4
1597834152004,-81,-72,-68,-63,4
1597834153032,-81,-72,-69,-64,4
1597834164718,-81,-72,-69,-64,4
1597834165765,-81,-72,-69,-70,4
1597834179629,-75,-72,-71,-71,4
1597834180626,-75,-69,-71,-71,4
1597834182655,-75,-72,-72,-72,4
1597834184172,-74,-66,-82,-70,4
1597834195197,-75,-66,-81,-70,4
1597834196210,-75,-66,-82,-71,4
1597834197237,-74,-66,-82,-71,4
1597834198241,-74,-73,-81,-71,4
1597834209337,-81,-79,-67,-63,4
1597834211389,-88,-81,-64,-63,4
1597834212596,-75,-79,-65,-64,4
1597834224794,-75,-70,-67,-61,4
1597834225769,-75,-71,-67,-61,4
1597834226815,-75,-70,-67,-61,4
1597834228852,-76,-75,-67,-62,4
1597834240842,-77,-74,-75,-63,4
1597834242863,-76,-75,-75,-62,4
1597834254404,-76,-74,-75,-62,4
1597834255412,-75,-74,-75,-61,4
1597834257045,-76,-75,-75,-57,4
1597834258063,-77,-74,-76,-61,4
1597834269581,-76,-74,-75,-61,4
1597834271251,-79,-73,-75,-61,4
1597834273613,-76,-85,-74,-58,4
1597834286056,-79,-84,-75,-60,4
1597834287863,-79,-92,-73,-60,4
1597834288834,-78,-85,-74,-60,4
1597834299989,-78,-82,-74,-60,4
1597834301023,-77,-84,-74,-60,4
1597834302028,-77,-84,-73,-60,4
1597834303029,-77,-82,-73,-60,4
1597834304049,-76,-79,-76,-61,4
1597834315923,-76,-75,-75,-61,4
1597834317231,-72,-79,-76,-61,4
1597834318231,-77,-75,-74,-62,4
1597834330070,-76,-75,-73,-73,4
1597834331090,-72,-76,-73,-73,4
1597834332442,-76,-75,-73,-69,4
1597834344255,-75,-73,-73,-69,4
1597834345248,-76,-74,-74,-69,4
1597834346296,-78,-78,-74,-70,4
1597834348344,-75,-77,-69,-63,4
1597834359501,-74,-79,-80,-64,4
1597834361501,-72,-73,-73,-65,4
1597834375704,-87,-74,-81,-62,4
1597834376730,-87,-73,-79,-63,4
1597834377736,-88,-73,-81,-60,4
1597834378756,-75,-69,-80,-59,4
1597834389932,-71,-65,-70,-76,4
1597834392927,-82,-69,-73,-68,4
1597834393941,-75,-77,-82,-64,4
1597834405099,-77,-73,-80,-62,4
1597834406117,-76,-81,-85,-60,4
1597834408135,-76,-80,-85,-66,4
1597834419574,-76,-79,-85,-66,4
1597834421269,-79,-79,-84,-66,4
1597834434428,-77,-78,-75,-63,4
1597834436271,-76,-76,-75,-63,4
1597834438806,-90,-74,-77,-57,4
1597834449986,-91,-75,-76,-56,4
1597834450993,-90,-75,-76,-56,4
1597834452037,-91,-75,-77,-56,4
1597834453801,-88,-78,-78,-56,4
1597834465643,-87,-78,-78,-56,4
1597834466925,-88,-82,-76,-57,4
1597834469240,-85,-72,-82,-56,4
1597834481059,-89,-71,-82,-56,4
1597834482071,-88,-71,-81,-56,4
1597834483117,-88,-71,-82,-54,4
1597834496110,-87,-74,-77,-54,4
1597834497622,-85,-75,-77,-54,4
1597834498666,-92,-82,-82,-57,4
1597834509836,-90,-78,-78,-56,4
1597834510805,-94,-82,-78,-59,4
1597834511845,-94,-82,-78,-58,4
1597834513497,-83,-79,-78,-53,4
1597834524642,-83,-72,-82,-57,4
1597834526006,-83,-72,-88,-57,4
1597834527026,-82,-72,-85,-57,4
1597834541222,-70,-75,-85,-65,4
1597834542229,-73,-75,-85,-61,4
1597834543770,-73,-76,-81,-66,4
1597834556423,-75,-69,-81,-79,4
1597834557961,-75,-69,-78,-78,4
1597834559115,-97,-77,-71,-61,4
1597834570583,-96,-77,-72,-61,4
1597834572270,-94,-76,-70,-61,4
1597834573626,-94,-75,-70,-61,4
1597834584763,-93,-75,-70,-61,4
1597834585800,-92,-75,-70,-62,4
1597834600983,-93,-74,-70,-61,4
1597834602709,-94,-72,-70,-60,4
1597834604042,-84,-69,-70,-79,4
1597834616185,-85,-69,-77,-79,4
1597834617903,-87,-69,-76,-77,4
1597834619239,-76,-72,-77,-58,4
1597834630109,-76,-72,-77,-59,4
1597834632100,-76,-67,-73,-59,4
1597834633432,-76,-71,-85,-59,4
1597834644593,-81,-72,-85,-65,4
1597834646033,-79,-71,-87,-68,4
1597834647023,-80,-71,-87,-72,4
1597834648361,-77,-71,-88,-68,4
1597834659526,-78,-69,-80,-60,4
1597834660495,-77,-69,-81,-63,4
1597834661543,-78,-68,-81,-63,4
1597834662869,-78,-68,-83,-64,4
1597834674429,-78,-67,-88,-66,4
1597834675731,-84,-69,-82,-70,4
1597834676744,-84,-69,-82,-66,4
1597834678120,-83,-68,-77,-62,4
